<?xml version="1.0" encoding="UTF-8" standalone="no"?>
<svg
   xmlns:dc="http://purl.org/dc/elements/1.1/"
   xmlns:cc="http://creativecommons.org/ns#"
   xmlns:rdf="http://www.w3.org/1999/02/22-rdf-syntax-ns#"
   xmlns:svg="http://www.w3.org/2000/svg"
   xmlns="http://www.w3.org/2000/svg"
   xmlns:xlink="http://www.w3.org/1999/xlink"
   xmlns:sodipodi="http://sodipodi.sourceforge.net/DTD/sodipodi-0.dtd"
   xmlns:inkscape="http://www.inkscape.org/namespaces/inkscape"
   version="1.1"
   id="Layer_1"
   x="0px"
   y="0px"
   viewBox="0 0 204.20789 353.66528"
   xml:space="preserve"
   sodipodi:docname="buton-amii-interactiv-rosu.svg"
   width="204.2079"
   height="353.66528"
   inkscape:version="1.0.2-2 (e86c870879, 2021-01-15)"><metadata
   id="metadata163"><rdf:RDF><cc:Work
       rdf:about=""><dc:format>image/svg+xml</dc:format><dc:type
         rdf:resource="http://purl.org/dc/dcmitype/StillImage" /></cc:Work></rdf:RDF></metadata><defs
   id="defs161" /><sodipodi:namedview
   pagecolor="#ffffff"
   bordercolor="#666666"
   borderopacity="1"
   objecttolerance="10"
   gridtolerance="10"
   guidetolerance="10"
   inkscape:pageopacity="0"
   inkscape:pageshadow="2"
   inkscape:window-width="1920"
   inkscape:window-height="1017"
   id="namedview159"
   showgrid="false"
   inkscape:zoom="1.0571452"
   inkscape:cx="115.6396"
   inkscape:cy="185.52559"
   inkscape:window-x="-8"
   inkscape:window-y="-8"
   inkscape:window-maximized="1"
   inkscape:current-layer="Layer_1" />
<style
   type="text/css"
   id="style2">
	.st0{fill:#15202D;}
	.st1{fill:#869AA5;}
	.st2{fill:#5F787F;}
	.st3{fill:#9DB9C1;}
	.st4{fill:#D71E53;}
	.st5{fill:#801B3C;}
	.st6{fill:#F38DAF;}
	.st7{fill:#4A1227;}
	.st8{fill:#4B6269;}
	.st9{fill:#FFFFFF;}
	.st10{clip-path:url(#SVGID_00000166671125681106768310000017826942197182639775_);fill:#15202D;}
	.st11{fill:#364656;}
</style>
<g
   id="g144"
   transform="translate(-182.00042,-235.41941)">
	<g
   id="g6">
		<path
   class="st0"
   d="m 332.46,507.61 c -8.82,6.61 -16.06,16.04 -21.98,31.05 -2.46,6.23 -3.97,14.36 -0.64,20.82 3.3,6.38 9.42,6.53 14.32,5.25 9.77,-2.57 18.53,-9.47 28.08,-12.99 2.32,-0.86 4.69,-1.51 7.09,-1.81 1.14,-0.15 2.31,-0.18 3.47,-0.14 1.17,0.04 2.46,0.08 3.52,0.93 0.7,0.56 1.33,1.57 1.15,2.75 -0.11,0.78 -0.45,1.48 -0.74,2.14 -0.38,0.88 -0.76,1.76 -1.14,2.63 -1.49,3.44 -3.17,6.83 -4.41,10.48 -1.04,3.06 -1.52,6.9 -0.19,10.04 1.37,3.23 3.97,4.22 6.47,4.04 4.56,-0.3 10.2,-3.99 14.05,1.39 0.77,1.07 1.31,2.29 1.73,3.68 0.33,1.13 1.44,1.5 2.15,0.99 0.82,-0.58 0.99,-1.88 0.66,-3.01 -0.88,-2.96 -2.51,-5.56 -4.51,-7.12 -2.34,-1.83 -4.88,-2.14 -7.48,-1.75 -2.8,0.42 -11.33,4.41 -10.67,-3.42 0.13,-1.55 0.67,-3 1.22,-4.33 0.71,-1.72 1.46,-3.41 2.2,-5.11 0.73,-1.7 1.47,-3.39 2.2,-5.09 0.71,-1.65 1.47,-3.29 1.65,-5.25 0.34,-3.69 -1.87,-6.82 -4.24,-7.82 -2.44,-1.04 -5.18,-0.75 -7.67,-0.45 -9.68,1.2 -18.4,7.66 -27.47,11.89 -2.28,1.06 -4.58,2 -6.93,2.68 -2.46,0.72 -5.15,1.35 -7.67,0.47 -1.99,-0.7 -3.9,-2.25 -4.83,-4.93 -0.99,-2.85 -0.55,-6.15 0.15,-8.99 2.24,-8.98 7.69,-14.92 9.4,-17.23 3.48,-4.68 6.83,-7.43 10.97,-10.92 1.07,-0.9 2.14,-1.75 3.24,-2.57 1.79,-1.34 0.3,-5.35 -1.5,-4.01 z"
   id="path4" />
	</g>
	<path
   class="st1"
   d="m 266.63,269.53 c 0,0 -27.1,3.27 -37.23,34.08 -9,27.37 -13.89,88.95 1.92,152.89 15.36,62.12 55.51,75.45 90.62,67.99 35.11,-7.46 60.7,-40.9 49.81,-97.83 -9.96,-52.1 -39.27,-119.15 -59.49,-141.28 -19.57,-21.39 -41.35,-17.04 -45.63,-15.85 z"
   id="path8" />
	<path
   class="st2"
   d="m 312.19,285.1 c -19.49,-21.11 -41.27,-16.74 -45.56,-15.57 0,0 -1.09,0.14 -2.91,0.59 7.32,-1.33 26.1,-2.34 43.15,16.11 20.17,21.83 47.7,88.41 57.54,139.91 10.51,55.05 -12.22,87.6 -46.15,95.98 1.03,-0.18 2.04,-0.37 3.05,-0.59 35.11,-7.46 60.77,-40.6 50.01,-96.87 -9.83,-51.49 -38.96,-117.73 -59.13,-139.56 z"
   id="path10" />
	<path
   class="st3"
   d="m 327.27,518.21 c -35.11,7.46 -75.2,-5.62 -90.41,-67.02 C 221.2,388 226.25,327.08 235.3,300 c 4.63,-13.82 12.71,-22.05 20.18,-26.92 -8.69,4.07 -20.25,12.6 -26.15,30.25 -9.06,27.08 -14.09,87.99 1.56,151.19 15.21,61.4 55.3,74.48 90.41,67.02 7.74,-1.64 15.01,-4.54 21.54,-8.65 -4.89,2.37 -10.12,4.16 -15.57,5.32 z"
   id="path12" />
	<path
   class="st4"
   d="m 237.91,301.85 c -1.57,10.93 -20.43,26.03 -35.96,21.77 -17.17,-4.71 -24.01,-25.74 -17.02,-43.46 6.99,-17.72 27.95,-26.78 41.96,-17.13 16.26,11.21 12.14,30.94 11.02,38.82 z"
   id="path14" />
	<path
   class="st5"
   d="m 226.88,263.02 c -8.96,-6.18 -20.78,-4.68 -29.95,1.84 8.44,-4.38 18.29,-4.76 26.02,0.57 16.28,11.22 12.15,30.94 11.02,38.82 -0.76,5.29 -3.11,10.47 -9.86,15.11 8.58,-4.61 12.9,-11.24 13.8,-17.51 1.12,-7.88 5.24,-27.61 -11.03,-38.83 z"
   id="path16" />
	<path
   class="st6"
   d="m 207.97,322.33 c -16.81,-5.84 -24.01,-25.74 -17.02,-43.46 3.82,-9.69 11.81,-16.77 20.56,-19.64 -10.13,-0.76 -21.8,8.6 -26.48,20.47 -6.99,17.72 -2.1,38.19 16.92,43.9 4.14,1.25 8.78,1.04 13.39,-0.48 -2.56,0.23 -5.06,0.02 -7.37,-0.79 z"
   id="path18" />
	<path
   class="st5"
   d="m 236.07,301.06 c -0.78,6.22 -14.92,14.16 -23.3,11.18 -10.23,-3.63 -14.87,-15.15 -10.92,-25.16 3.95,-10.01 16.47,-14.83 25.05,-9.07 9.98,6.72 9.73,18.56 9.17,23.05 z"
   id="path20" />
	<path
   class="st7"
   d="m 226.9,278.02 c -8.37,-5.62 -20.45,-1.17 -24.72,8.32 5.5,-6.14 15.46,-9.42 22.32,-4.82 9.99,6.7 9.77,18.8 8.56,24.17 -0.03,0.14 -0.05,0.3 -0.09,0.45 1.73,-1.66 2.89,-3.43 3.09,-5.08 0.57,-4.49 0.82,-16.33 -9.16,-23.04 z"
   id="path22" />
	<path
   class="st4"
   d="m 301.71,285.66 c 6.72,10.58 26.42,17.09 40.3,6.95 13.27,-9.7 14.14,-32.23 1.16,-46.23 -12.98,-14 -35.83,-14.91 -45.36,-0.87 -11.07,16.32 -0.36,33.43 3.9,40.15 z"
   id="path24" />
	<path
   class="st5"
   d="m 343.16,246.38 c -7.53,-8.11 -18.37,-11.82 -28.01,-10.77 8.41,0.32 17.2,4.03 23.6,10.92 12.98,14 12.12,36.53 -1.16,46.23 -3.92,2.87 -8.3,4.39 -12.72,4.89 5.87,0.24 11.92,-1.22 17.14,-5.04 13.27,-9.7 14.14,-32.23 1.15,-46.23 z"
   id="path26" />
	<path
   class="st6"
   d="m 306.42,288.58 c -4.26,-6.72 -14.97,-23.83 -3.9,-40.15 7.49,-11.04 23.22,-12.83 35.91,-6.29 -13.23,-9.77 -32.16,-9.08 -40.61,3.37 -11.07,16.32 -0.36,33.42 3.9,40.15 2.18,3.44 5.74,6.44 10.02,8.58 -2.18,-1.66 -4,-3.58 -5.32,-5.66 z"
   id="path28" />
	<path
   class="st5"
   d="m 306.6,285.03 c 3.86,5.75 15.27,8.33 23.35,1.56 7.73,-6.48 8.29,-19.66 0.81,-27.02 -7.48,-7.35 -20.75,-6.47 -26.3,2.31 -6.47,10.19 -0.31,19.5 2.14,23.15 z"
   id="path30" />
	<path
   class="st7"
   d="m 307.4,265.25 c 5.41,-8.53 18.07,-9.58 25.66,-2.88 -0.65,-1 -1.42,-1.95 -2.28,-2.81 -7.49,-7.35 -20.75,-6.47 -26.3,2.31 -6.47,10.2 -0.3,19.5 2.15,23.16 0.6,0.89 1.39,1.72 2.32,2.43 -2.73,-4.14 -7.53,-12.8 -1.55,-22.21 z"
   id="path32" />
	<g
   id="g40">
		<path
   class="st0"
   d="M 325.98,372.54 358,342.03 c 0.81,-0.76 2.07,-0.52 2.68,0.52 v 0 c 0.53,0.9 0.36,2.06 -0.38,2.67 l -33.97,27.91 z"
   id="path34" />
		<path
   class="st0"
   d="m 328.67,377.07 46.92,-15.74 c 0.97,-0.33 2.01,0.4 2.19,1.57 v 0 c 0.16,1.01 -0.36,1.95 -1.22,2.18 l -47.79,12.66 z"
   id="path36" />
		<path
   class="st0"
   d="m 328.57,383.25 43.31,1.53 c 0.88,0.03 1.59,0.88 1.55,1.85 v 0 c -0.04,0.93 -0.73,1.62 -1.56,1.54 l -43.46,-4.19 z"
   id="path38" />
	</g>
	<g
   id="g48">
		<path
   class="st0"
   d="m 250.37,388.61 -41.66,-14.85 c -1.05,-0.37 -2.1,0.36 -2.23,1.57 v 0 c -0.12,1.04 0.51,2.03 1.44,2.28 l 42.39,11.68 z"
   id="path42" />
		<path
   class="st0"
   d="m 249.74,393.85 -49.27,4.71 c -1.02,0.09 -1.67,1.18 -1.37,2.32 v 0 c 0.26,0.99 1.12,1.63 2,1.5 l 48.81,-7.87 z"
   id="path44" />
		<path
   class="st0"
   d="m 252.35,399.45 -38.95,19.01 c -0.79,0.38 -1.09,1.45 -0.66,2.32 v 0 c 0.41,0.83 1.32,1.18 2.05,0.77 l 38,-21.5 z"
   id="path46" />
	</g>
	<path
   class="st8"
   d="m 221.03,339.24 c 0,0 40.39,-38.41 112.14,-23.45 l -3.57,-6.31 -56.26,-1.38 -51.63,23.92 z"
   id="path50" />
	<path
   class="st4"
   d="m 221.44,336.81 c 0,0 41.48,-37.66 110.11,-23.4 0,0 -20.31,-56.3 -69.83,-43.42 -40.06,10.41 -40.28,66.82 -40.28,66.82 z"
   id="path52" />
	<g
   id="g56">
		<path
   class="st5"
   d="m 256.8,271.81 c 42.58,-11.07 63.56,28.99 68.61,40.44 2.02,0.34 4.07,0.72 6.13,1.15 0,0 -20.31,-56.3 -69.83,-43.42 -2.42,0.63 -4.7,1.43 -6.84,2.37 0.65,-0.19 1.29,-0.37 1.93,-0.54 z"
   id="path54" />
	</g>
	<g
   id="g60">
		<path
   class="st6"
   d="m 266.84,269.68 c 2.99,-0.78 5.87,-1.3 8.66,-1.6 -4.31,0.05 -8.9,0.63 -13.77,1.91 -40.06,10.42 -40.28,66.82 -40.28,66.82 0,0 1.82,-1.64 5.29,-4.11 0.89,-12.84 6.36,-54.25 40.1,-63.02 z"
   id="path58" />
	</g>
	<g
   id="g86">
		<g
   id="g72">
			
				<ellipse
   transform="matrix(0.9781,-0.2079,0.2079,0.9781,-66.7035,58.3555)"
   class="st8"
   cx="244.25999"
   cy="346.5"
   rx="25.139999"
   ry="25.83"
   id="ellipse62" />
			<g
   id="g70">
				
					<ellipse
   transform="matrix(0.9781,-0.2079,0.2079,0.9781,-67.1249,58.499)"
   class="st9"
   cx="244.73"
   cy="348.57999"
   rx="23.860001"
   ry="24.469999"
   id="ellipse64" />
				
					<ellipse
   transform="matrix(0.9781,-0.2079,0.2079,0.9781,-67.5206,59.6328)"
   class="st0"
   cx="249.92"
   cy="351.01999"
   rx="16.07"
   ry="16.48"
   id="ellipse66" />
				
					<ellipse
   transform="matrix(0.9781,-0.2079,0.2079,0.9781,-66.4447,57.2477)"
   class="st9"
   cx="239.12"
   cy="344.70999"
   rx="6"
   ry="6.1500001"
   id="ellipse68" />
			</g>
		</g>
		<g
   id="g84">
			
				<ellipse
   transform="matrix(0.9781,-0.2079,0.2079,0.9781,-62.0458,72.6937)"
   class="st8"
   cx="314.79001"
   cy="331.51001"
   rx="25.139999"
   ry="25.83"
   id="ellipse74" />
			<g
   id="g82">
				
					<ellipse
   transform="matrix(0.9781,-0.2079,0.2079,0.9781,-62.4713,72.8253)"
   class="st9"
   cx="315.20999"
   cy="333.60001"
   rx="23.860001"
   ry="24.469999"
   id="ellipse76" />
				
					<ellipse
   transform="matrix(0.9781,-0.2079,0.2079,0.9781,-63.4564,72.1408)"
   class="st0"
   cx="311.45999"
   cy="337.94"
   rx="16.07"
   ry="16.48"
   id="ellipse78" />
				<path
   class="st9"
   d="m 312.9,329.03 c 0.71,3.33 3.91,5.46 7.15,4.77 3.24,-0.69 5.3,-3.94 4.59,-7.26 -0.71,-3.33 -3.91,-5.46 -7.15,-4.77 -3.24,0.69 -5.3,3.94 -4.59,7.26 z"
   id="path80" />
			</g>
		</g>
	</g>
	<g
   id="g126">
		<g
   id="g90">
			<path
   class="st8"
   d="m 273.34,375.66 c 0,0 8.35,22.66 8.93,23.03 0.58,0.37 12.18,2 20.36,-4.89 l 0.93,-27.08 c 0,0 -14.95,10.47 -30.22,8.94 z"
   id="path88" />
		</g>
		<g
   id="g94">
			<path
   class="st9"
   d="m 270.33,375.28 c 0,0 9.36,20.77 9.94,21.12 0.57,0.35 13.11,0.45 19.54,-4.63 l 0.72,-22.28 c 0,0 -14.9,7.05 -30.2,5.79 z"
   id="path92" />
		</g>
		<g
   id="g108">
			<path
   class="st0"
   d="m 271.79,365.46 c 0.1,0.45 -0.27,0.92 -0.81,1.03 -0.54,0.11 -1.06,-0.15 -1.16,-0.61 -0.1,-0.45 0.27,-0.92 0.81,-1.03 0.54,-0.11 1.07,0.16 1.16,0.61 z"
   id="path96" />
			<path
   class="st0"
   d="m 278.54,363.11 c 0.11,0.54 -0.32,1.09 -0.98,1.23 -0.66,0.14 -1.28,-0.19 -1.39,-0.73 -0.11,-0.54 0.32,-1.09 0.98,-1.23 0.66,-0.14 1.28,0.19 1.39,0.73 z"
   id="path98" />
			<path
   class="st0"
   d="m 276.68,368.71 c 0.1,0.48 -0.29,0.98 -0.88,1.11 -0.59,0.12 -1.15,-0.16 -1.25,-0.65 -0.1,-0.49 0.29,-0.98 0.88,-1.11 0.58,-0.13 1.14,0.17 1.25,0.65 z"
   id="path100" />
			<path
   class="st0"
   d="m 292,359.14 c 0.1,0.46 -0.27,0.93 -0.82,1.04 -0.56,0.12 -1.08,-0.16 -1.17,-0.62 -0.1,-0.46 0.27,-0.93 0.82,-1.04 0.55,-0.11 1.07,0.16 1.17,0.62 z"
   id="path102" />
			
				<ellipse
   transform="matrix(0.9781,-0.2079,0.2079,0.9781,-69.568,68.4312)"
   class="st0"
   cx="290.76001"
   cy="365.16"
   rx="0.87"
   ry="0.72000003"
   id="ellipse104" />
			<path
   class="st0"
   d="m 295.91,361.74 c 0.1,0.47 -0.28,0.95 -0.85,1.07 -0.57,0.12 -1.11,-0.16 -1.21,-0.63 -0.1,-0.47 0.28,-0.95 0.85,-1.07 0.57,-0.13 1.11,0.16 1.21,0.63 z"
   id="path106" />
		</g>
		<polygon
   class="st0"
   points="287.36,374.72 285.26,375.63 290.61,395.74 "
   id="polygon110" />
		<path
   class="st0"
   d="m 261.89,371.16 c 0,0 9.75,5.1 24.66,1.93 14.88,-3.16 19.03,-11.6 19.03,-11.6 l 0.98,2.44 c 0,0 -9.18,10.63 -21.59,12.52 -12.41,1.88 -23.83,-3.43 -23.83,-3.43 z"
   id="path112" />
		<path
   class="st0"
   d="m 266.41,368.68 c 0,0 -5.97,2.03 -5.25,8.67 0,0 -3.74,-2.54 -0.73,-6.64 2.3,-3.14 5.98,-2.03 5.98,-2.03 z"
   id="path114" />
		<path
   class="st0"
   d="m 309.05,367.21 c 0,0 -0.94,-5.14 -8.95,-5.11 0,0 3.9,-2.89 8,-0.02 3.15,2.18 0.95,5.13 0.95,5.13 z"
   id="path116" />
		<polygon
   class="st0"
   points="287.66,373.98 284,357.97 282.53,358.08 285.03,374.54 "
   id="polygon118" />
		<g
   id="g124">
			<path
   class="st4"
   d="m 273.89,346.53 c 3.49,-1.25 8.47,-2.6 13.79,-2.64 3.48,-0.02 5.93,2.64 5.05,5.52 -1.04,3.42 -3.28,7.73 -8.13,9.94 -1.06,0.48 -2.27,0.66 -3.42,0.52 -2.67,-0.32 -7.66,-1.62 -10.52,-6.7 -1.36,-2.43 0.11,-5.51 3.23,-6.64 z"
   id="path120" />
			<path
   class="st6"
   d="m 282.09,350.82 c 0.34,1.6 -1.18,3.29 -3.41,3.76 -2.23,0.47 -4.31,-0.44 -4.65,-2.05 -0.34,-1.61 1.18,-3.29 3.41,-3.76 2.24,-0.47 4.31,0.45 4.65,2.05 z"
   id="path122" />
		</g>
	</g>
	<g
   id="g138">
		<g
   id="g136">
			<defs
   id="defs129">
				<path
   id="SVGID_1_"
   d="m 221.44,336.81 c 0,0 41.48,-37.66 110.11,-23.4 0,0 -20.31,-56.3 -69.83,-43.42 -40.06,10.41 -40.28,66.82 -40.28,66.82 z" />
			</defs>
			<clipPath
   id="SVGID_00000089537582333787667430000004465129433029389701_">
				<use
   xlink:href="#SVGID_1_"
   style="overflow:visible"
   id="use131"
   x="0"
   y="0"
   width="100%"
   height="100%" />
			</clipPath>
			<polygon
   style="fill:#15202d"
   points="273.77,314.58 264.68,267.88 266.43,267.51 276.44,313.85 "
   clip-path="url(#SVGID_00000089537582333787667430000004465129433029389701_)"
   id="polygon134" />
		</g>
	</g>
	<path
   class="st0"
   d="m 261.2,282.85 c -1.26,2.35 1.93,18.55 3.87,21.57 1.94,3.01 13.15,0.13 14.63,-2.57 1.48,-2.7 -2.52,-20.28 -3.97,-22.16 -1.47,-1.86 -13.29,0.81 -14.53,3.16 z"
   id="path140" />
	<path
   class="st11"
   d="m 265.63,286.49 c -0.56,1.36 1.29,10.91 2.28,12.7 1,1.8 6.4,0.32 7.06,-1.23 0.66,-1.55 -1.6,-11.93 -2.34,-13.06 -0.74,-1.13 -6.44,0.23 -7,1.59 z"
   id="path142" />
</g>
<g
   id="g156"
   transform="translate(-182.00042,-235.41941)">
	<g
   id="g148">
		
			<ellipse
   transform="matrix(0.9781,-0.2079,0.2079,0.9781,-89.0864,74.2126)"
   class="st9"
   cx="308.5"
   cy="460.91"
   rx="60.380001"
   ry="60.470001"
   id="ellipse146" />
	</g>
	<g
   id="g154">
		<path
   class="st4"
   d="m 347.63,480.84 c 2.3,10.84 -4.38,21.47 -14.9,23.71 l -9.93,2.11 c -3.97,0.84 -8.04,0.04 -11.45,-2.24 l -36.81,-24.69 c -1,-0.68 -1.3,-2.07 -0.66,-3.09 1.03,-1.62 2.63,-2.71 4.4,-3.08 1.43,-0.3 2.96,-0.15 4.37,0.53 l 12.52,6.02 c 0.74,0.36 1.64,0.26 2.27,-0.26 0.64,-0.53 0.92,-1.38 0.75,-2.19 l -8.82,-41.49 c -0.51,-2.41 0.98,-4.77 3.32,-5.26 2.34,-0.5 4.66,1.06 5.17,3.46 l 6.97,32.77 c 0.26,1.2 1.41,1.97 2.57,1.72 1.16,-0.25 1.91,-1.42 1.65,-2.62 l -2.32,-10.93 c -0.51,-2.41 0.98,-4.77 3.32,-5.26 2.34,-0.5 4.66,1.06 5.17,3.46 l 2.32,10.93 c 0.26,1.2 1.41,1.97 2.57,1.72 1.16,-0.25 1.91,-1.42 1.65,-2.62 l -1.39,-6.55 c -0.51,-2.41 0.98,-4.77 3.32,-5.26 2.34,-0.5 4.66,1.06 5.17,3.46 l 1.39,6.55 c 0.26,1.2 1.41,1.97 2.57,1.72 1.16,-0.25 1.91,-1.42 1.65,-2.62 L 334,458.65 c -0.51,-2.41 0.96,-4.76 3.32,-5.26 2.34,-0.5 4.66,1.06 5.17,3.46 z m -11.21,-31.87 c -1.73,0.37 -3.25,1.26 -4.39,2.49 -1.88,-3.15 -5.56,-4.93 -9.25,-4.15 -1.73,0.37 -3.25,1.26 -4.39,2.49 -1.89,-3.15 -5.56,-4.93 -9.25,-4.15 -1.55,0.33 -2.9,1.06 -4,2.07 l -3.04,-14.28 c -1.03,-4.82 -5.65,-7.93 -10.33,-6.93 -4.68,0.99 -7.64,5.72 -6.61,10.54 l 7.89,37.13 -8.59,-4.13 c -5.08,-2.45 -11.2,-0.67 -14.22,4.13 -1.93,3.07 -1.05,7.23 1.97,9.26 l 36.81,24.69 c 4.4,2.94 9.63,3.98 14.71,2.89 l 9.93,-2.11 c 12.85,-2.73 21.03,-15.74 18.21,-28.97 l -5.1,-24.01 c -1.05,-4.84 -5.68,-7.95 -10.35,-6.96 z m -48.4,-37.19 c -12.25,2.6 -20.11,14.61 -17.52,26.81 0.78,3.69 2.52,7.07 5.12,10.06 0.71,0.78 1.77,1.12 2.73,0.91 0.45,-0.1 0.9,-0.3 1.27,-0.65 1.19,-1.02 1.3,-2.82 0.28,-3.98 -1.98,-2.27 -3.28,-4.81 -3.86,-7.53 -1.94,-9.14 3.96,-18.14 13.14,-20.09 9.18,-1.95 18.24,3.89 20.18,13.01 0.28,1.32 0.36,2.72 0.27,4.47 -0.09,1.56 1.11,2.89 2.66,2.98 1.6,0.1 2.91,-1.11 3.01,-2.67 0.13,-2.27 0.01,-4.15 -0.38,-5.96 -2.59,-12.19 -14.67,-19.96 -26.9,-17.36 z"
   id="path150" />
		<path
   class="st4"
   d="m 333.97,510.37 -9.93,2.11 c -5.49,1.17 -11.12,0.06 -15.86,-3.11 l -36.81,-24.69 c -3.69,-2.49 -4.76,-7.55 -2.4,-11.31 3.43,-5.45 10.38,-7.46 16.15,-4.68 l 5.83,2.8 -7.26,-34.15 c -1.2,-5.62 2.29,-11.15 7.77,-12.31 5.48,-1.16 10.91,2.47 12.11,8.09 l 2.56,12.05 c 0.84,-0.46 1.75,-0.79 2.69,-0.99 3.64,-0.77 7.38,0.57 9.8,3.4 1.14,-0.85 2.43,-1.44 3.84,-1.74 3.65,-0.78 7.4,0.56 9.81,3.39 1.13,-0.84 2.44,-1.43 3.84,-1.73 5.47,-1.16 10.91,2.47 12.13,8.1 l 5.11,24.02 c 2.98,14.06 -5.71,27.85 -19.38,30.75 z m -56.29,-39.71 c -2.47,0.53 -4.73,2.02 -6.18,4.32 -1.5,2.4 -0.82,5.63 1.53,7.22 l 36.8,24.69 c 4.06,2.71 8.88,3.66 13.56,2.67 l 9.93,-2.11 c 12.05,-2.56 19.7,-14.76 17.06,-27.19 l -5.1,-24.01 c -0.86,-4.01 -4.72,-6.6 -8.57,-5.78 -1.39,0.3 -2.64,1 -3.6,2.04 l -1.37,1.47 -1.02,-1.72 c -1.61,-2.7 -4.68,-4.08 -7.65,-3.44 -1.39,0.3 -2.64,1 -3.6,2.04 l -1.36,1.45 -1.03,-1.7 c -1.62,-2.69 -4.69,-4.08 -7.66,-3.45 -1.24,0.26 -2.35,0.84 -3.3,1.7 l -1.93,1.78 -3.58,-16.85 c -0.85,-4 -4.68,-6.6 -8.55,-5.78 -3.86,0.82 -6.31,4.75 -5.46,8.76 l 8.53,40.11 -11.33,-5.44 c -1.96,-0.99 -4.11,-1.21 -6.12,-0.78 z m 55.36,35.35 -9.93,2.11 c -4.36,0.93 -8.84,0.05 -12.6,-2.46 L 273.7,480.97 c -1.68,-1.13 -2.17,-3.42 -1.09,-5.14 1.21,-1.91 3.16,-3.28 5.35,-3.74 1.79,-0.38 3.69,-0.15 5.33,0.65 l 12.51,6.02 c 0.22,0.11 0.48,0.08 0.65,-0.06 0.21,-0.18 0.3,-0.45 0.24,-0.73 l -8.82,-41.49 c -0.68,-3.22 1.32,-6.37 4.47,-7.04 3.15,-0.67 6.27,1.4 6.95,4.62 l 6.97,32.77 c 0.08,0.39 0.44,0.64 0.8,0.57 0.35,-0.07 0.58,-0.45 0.5,-0.84 l -2.32,-10.93 c -0.68,-3.22 1.32,-6.37 4.47,-7.04 3.15,-0.67 6.27,1.4 6.95,4.62 l 2.32,10.93 c 0.08,0.39 0.44,0.64 0.8,0.57 0.35,-0.07 0.58,-0.45 0.5,-0.84 l -1.39,-6.55 c -0.68,-3.22 1.32,-6.37 4.47,-7.04 3.15,-0.67 6.27,1.4 6.95,4.62 l 1.39,6.55 c 0.08,0.39 0.44,0.64 0.8,0.57 0.35,-0.07 0.58,-0.45 0.5,-0.84 l -0.47,-2.19 c -0.68,-3.22 1.32,-6.37 4.47,-7.04 3.15,-0.67 6.27,1.4 6.95,4.62 l 5.12,24.01 c 2.5,11.59 -4.7,23.02 -16.03,25.43 z m -54.45,-30.99 c -1.41,0.3 -2.66,1.18 -3.43,2.41 -0.21,0.34 -0.11,0.83 0.22,1.05 l 36.81,24.69 c 3.07,2.06 6.74,2.78 10.31,2.02 l 9.93,-2.11 c 9.45,-2.01 15.53,-11.38 13.89,-21.11 l -5.28,-24.83 c -0.34,-1.59 -1.86,-2.63 -3.39,-2.3 -1.54,0.33 -2.5,1.89 -2.16,3.49 l 0.47,2.19 c 0.43,2.01 -0.83,3.98 -2.81,4.4 -1.98,0.42 -3.93,-0.87 -4.35,-2.88 l -1.39,-6.55 c -0.34,-1.59 -1.86,-2.63 -3.39,-2.3 -1.54,0.33 -2.5,1.89 -2.16,3.49 l 1.39,6.55 c 0.43,2.01 -0.83,3.98 -2.81,4.4 -1.98,0.42 -3.93,-0.87 -4.35,-2.88 l -2.32,-10.93 c -0.34,-1.59 -1.86,-2.63 -3.39,-2.3 -1.53,0.33 -2.5,1.89 -2.16,3.49 l 2.32,10.93 c 0.43,2.01 -0.83,3.98 -2.81,4.4 -1.98,0.42 -3.93,-0.87 -4.35,-2.88 l -6.97,-32.77 c -0.34,-1.59 -1.86,-2.63 -3.39,-2.3 -1.54,0.33 -2.5,1.89 -2.16,3.49 l 8.82,41.49 c 0.29,1.38 -0.2,2.78 -1.28,3.67 -1.06,0.89 -2.58,1.07 -3.86,0.44 L 282,475.43 c -1.06,-0.5 -2.26,-0.65 -3.41,-0.41 z m 0.08,-23.99 c -1.51,0.32 -3.1,-0.21 -4.16,-1.38 -2.81,-3.22 -4.64,-6.83 -5.48,-10.76 -2.76,-12.99 5.62,-25.81 18.67,-28.59 13.06,-2.78 25.93,5.53 28.69,18.52 0.41,1.95 0.55,3.96 0.4,6.37 -0.07,1.17 -0.59,2.24 -1.47,3.01 -0.87,0.77 -1.98,1.15 -3.14,1.07 -1.14,-0.06 -2.2,-0.58 -2.96,-1.44 -0.78,-0.87 -1.16,-1.97 -1.09,-3.13 0.09,-1.59 0.01,-2.89 -0.24,-4.07 -1.77,-8.31 -10.01,-13.64 -18.4,-11.85 -8.37,1.78 -13.75,10 -11.98,18.31 0.53,2.49 1.72,4.8 3.52,6.86 0.77,0.86 1.14,1.98 1.06,3.14 -0.08,1.16 -0.61,2.22 -1.49,2.98 -0.52,0.47 -1.2,0.81 -1.93,0.96 z m 9.66,-37.78 c -11.43,2.43 -18.78,13.66 -16.36,25.03 0.73,3.42 2.34,6.59 4.79,9.39 0.32,0.35 0.83,0.53 1.29,0.43 0.16,-0.03 0.38,-0.11 0.58,-0.3 0.3,-0.25 0.45,-0.57 0.48,-0.92 0.03,-0.35 -0.08,-0.69 -0.31,-0.95 -2.15,-2.45 -3.56,-5.21 -4.2,-8.22 -2.11,-9.94 4.3,-19.75 14.3,-21.87 9.99,-2.12 19.84,4.23 21.95,14.16 0.31,1.46 0.4,3 0.3,4.86 -0.02,0.35 0.1,0.7 0.34,0.96 0.24,0.26 0.56,0.42 0.91,0.44 0.36,0.03 0.71,-0.09 0.97,-0.32 0.27,-0.24 0.43,-0.57 0.46,-0.94 0.12,-2.12 0.01,-3.89 -0.35,-5.57 -2.44,-11.35 -13.72,-18.61 -25.15,-16.18 z"
   id="path152" />
	</g>
</g>
</svg>
